# Blender v2.76 (sub 0) OBJ File: ''
# www.blender.org
mtllib monkey.mtl
o Suzanne
v 0.437500 0.164062 0.765625
v -0.437500 0.164062 0.765625
v 0.500000 0.093750 0.687500
v -0.500000 0.093750 0.687500
v 0.546875 0.054688 0.578125
v -0.546875 0.054688 0.578125
v 0.351562 -0.023438 0.617188
v -0.351562 -0.023438 0.617188
v 0.351562 0.031250 0.718750
v -0.351562 0.031250 0.718750
v 0.351562 0.132812 0.781250
v -0.351562 0.132812 0.781250
v 0.273438 0.164062 0.796875
v -0.273438 0.164062 0.796875
v 0.203125 0.093750 0.742188
v -0.203125 0.093750 0.742188
v 0.156250 0.054688 0.648438
v -0.156250 0.054688 0.648438
v 0.078125 0.242188 0.656250
v -0.078125 0.242188 0.656250
v 0.140625 0.242188 0.742188
v -0.140625 0.242188 0.742188
v 0.242188 0.242188 0.796875
v -0.242188 0.242188 0.796875
v 0.273438 0.328125 0.796875
v -0.273438 0.328125 0.796875
v 0.203125 0.390625 0.742188
v -0.203125 0.390625 0.742188
v 0.156250 0.437500 0.648438
v -0.156250 0.437500 0.648438
v 0.351562 0.515625 0.617188
v -0.351562 0.515625 0.617188
v 0.351562 0.453125 0.718750
v -0.351562 0.453125 0.718750
v 0.351562 0.359375 0.781250
v -0.351562 0.359375 0.781250
v 0.437500 0.328125 0.765625
v -0.437500 0.328125 0.765625
v 0.500000 0.390625 0.687500
v -0.500000 0.390625 0.687500
v 0.546875 0.437500 0.578125
v -0.546875 0.437500 0.578125
v 0.625000 0.242188 0.562500
v -0.625000 0.242188 0.562500
v 0.562500 0.242188 0.671875
v -0.562500 0.242188 0.671875
v 0.468750 0.242188 0.757812
v -0.468750 0.242188 0.757812
v 0.476562 0.242188 0.773438
v -0.476562 0.242188 0.773438
v 0.445312 0.335938 0.781250
v -0.445312 0.335938 0.781250
v 0.351562 0.375000 0.804688
v -0.351562 0.375000 0.804688
v 0.265625 0.335938 0.820312
v -0.265625 0.335938 0.820312
v 0.226562 0.242188 0.820312
v -0.226562 0.242188 0.820312
v 0.265625 0.156250 0.820312
v -0.265625 0.156250 0.820312
v 0.351562 0.242188 0.828125
v -0.351562 0.242188 0.828125
v 0.351562 0.117188 0.804688
v -0.351562 0.117188 0.804688
v 0.445312 0.156250 0.781250
v -0.445312 0.156250 0.781250
v 0.000000 0.429688 0.742188
v 0.000000 0.351562 0.820312
v 0.000000 -0.679688 0.734375
v 0.000000 -0.320312 0.781250
v 0.000000 -0.187500 0.796875
v 0.000000 -0.773438 0.718750
v 0.000000 0.406250 0.601562
v 0.000000 0.570312 0.570312
v 0.000000 0.898438 -0.546875
v 0.000000 0.562500 -0.851562
v 0.000000 0.070312 -0.828125
v 0.000000 -0.382812 -0.351562
v 0.203125 -0.187500 0.562500
v -0.203125 -0.187500 0.562500
v 0.312500 -0.437500 0.570312
v -0.312500 -0.437500 0.570312
v 0.351562 -0.695312 0.570312
v -0.351562 -0.695312 0.570312
v 0.367188 -0.890625 0.531250
v -0.367188 -0.890625 0.531250
v 0.328125 -0.945312 0.523438
v -0.328125 -0.945312 0.523438
v 0.179688 -0.968750 0.554688
v -0.179688 -0.968750 0.554688
v 0.000000 -0.984375 0.578125
v 0.437500 -0.140625 0.531250
v -0.437500 -0.140625 0.531250
v 0.632812 -0.039062 0.539062
v -0.632812 -0.039062 0.539062
v 0.828125 0.148438 0.445312
v -0.828125 0.148438 0.445312
v 0.859375 0.429688 0.593750
v -0.859375 0.429688 0.593750
v 0.710938 0.484375 0.625000
v -0.710938 0.484375 0.625000
v 0.492188 0.601562 0.687500
v -0.492188 0.601562 0.687500
v 0.320312 0.757812 0.734375
v -0.320312 0.757812 0.734375
v 0.156250 0.718750 0.757812
v -0.156250 0.718750 0.757812
v 0.062500 0.492188 0.750000
v -0.062500 0.492188 0.750000
v 0.164062 0.414062 0.773438
v -0.164062 0.414062 0.773438
v 0.125000 0.304688 0.765625
v -0.125000 0.304688 0.765625
v 0.203125 0.093750 0.742188
v -0.203125 0.093750 0.742188
v 0.375000 0.015625 0.703125
v -0.375000 0.015625 0.703125
v 0.492188 0.062500 0.671875
v -0.492188 0.062500 0.671875
v 0.625000 0.187500 0.648438
v -0.625000 0.187500 0.648438
v 0.640625 0.296875 0.648438
v -0.640625 0.296875 0.648438
v 0.601562 0.375000 0.664062
v -0.601562 0.375000 0.664062
v 0.429688 0.437500 0.718750
v -0.429688 0.437500 0.718750
v 0.250000 0.468750 0.757812
v -0.250000 0.468750 0.757812
v 0.000000 -0.765625 0.734375
v 0.109375 -0.718750 0.734375
v -0.109375 -0.718750 0.734375
v 0.117188 -0.835938 0.710938
v -0.117188 -0.835938 0.710938
v 0.062500 -0.882812 0.695312
v -0.062500 -0.882812 0.695312
v 0.000000 -0.890625 0.687500
v 0.000000 -0.195312 0.750000
v 0.000000 -0.140625 0.742188
v 0.101562 -0.148438 0.742188
v -0.101562 -0.148438 0.742188
v 0.125000 -0.226562 0.750000
v -0.125000 -0.226562 0.750000
v 0.085938 -0.289062 0.742188
v -0.085938 -0.289062 0.742188
v 0.398438 -0.046875 0.671875
v -0.398438 -0.046875 0.671875
v 0.617188 0.054688 0.625000
v -0.617188 0.054688 0.625000
v 0.726562 0.203125 0.601562
v -0.726562 0.203125 0.601562
v 0.742188 0.375000 0.656250
v -0.742188 0.375000 0.656250
v 0.687500 0.414062 0.726562
v -0.687500 0.414062 0.726562
v 0.437500 0.546875 0.796875
v -0.437500 0.546875 0.796875
v 0.312500 0.640625 0.835938
v -0.312500 0.640625 0.835938
v 0.203125 0.617188 0.851562
v -0.203125 0.617188 0.851562
v 0.101562 0.429688 0.843750
v -0.101562 0.429688 0.843750
v 0.125000 -0.101562 0.812500
v -0.125000 -0.101562 0.812500
v 0.210938 -0.445312 0.710938
v -0.210938 -0.445312 0.710938
v 0.250000 -0.703125 0.687500
v -0.250000 -0.703125 0.687500
v 0.265625 -0.820312 0.664062
v -0.265625 -0.820312 0.664062
v 0.234375 -0.914062 0.632812
v -0.234375 -0.914062 0.632812
v 0.164062 -0.929688 0.632812
v -0.164062 -0.929688 0.632812
v 0.000000 -0.945312 0.640625
v 0.000000 0.046875 0.726562
v 0.000000 0.210938 0.765625
v 0.328125 0.476562 0.742188
v -0.328125 0.476562 0.742188
v 0.164062 0.140625 0.750000
v -0.164062 0.140625 0.750000
v 0.132812 0.210938 0.757812
v -0.132812 0.210938 0.757812
v 0.117188 -0.687500 0.734375
v -0.117188 -0.687500 0.734375
v 0.078125 -0.445312 0.750000
v -0.078125 -0.445312 0.750000
v 0.000000 -0.445312 0.750000
v 0.000000 -0.328125 0.742188
v 0.093750 -0.273438 0.781250
v -0.093750 -0.273438 0.781250
v 0.132812 -0.226562 0.796875
v -0.132812 -0.226562 0.796875
v 0.109375 -0.132812 0.781250
v -0.109375 -0.132812 0.781250
v 0.039062 -0.125000 0.781250
v -0.039062 -0.125000 0.781250
v 0.000000 -0.203125 0.828125
v 0.046875 -0.148438 0.812500
v -0.046875 -0.148438 0.812500
v 0.093750 -0.156250 0.812500
v -0.093750 -0.156250 0.812500
v 0.109375 -0.226562 0.828125
v -0.109375 -0.226562 0.828125
v 0.078125 -0.250000 0.804688
v -0.078125 -0.250000 0.804688
v 0.000000 -0.289062 0.804688
v 0.257812 -0.312500 0.554688
v -0.257812 -0.312500 0.554688
v 0.164062 -0.242188 0.710938
v -0.164062 -0.242188 0.710938
v 0.179688 -0.312500 0.710938
v -0.179688 -0.312500 0.710938
v 0.234375 -0.250000 0.554688
v -0.234375 -0.250000 0.554688
v 0.000000 -0.875000 0.687500
v 0.046875 -0.867188 0.687500
v -0.046875 -0.867188 0.687500
v 0.093750 -0.820312 0.710938
v -0.093750 -0.820312 0.710938
v 0.093750 -0.742188 0.726562
v -0.093750 -0.742188 0.726562
v 0.000000 -0.781250 0.656250
v 0.093750 -0.750000 0.664062
v -0.093750 -0.750000 0.664062
v 0.093750 -0.812500 0.640625
v -0.093750 -0.812500 0.640625
v 0.046875 -0.851562 0.632812
v -0.046875 -0.851562 0.632812
v 0.000000 -0.859375 0.632812
v 0.171875 0.218750 0.781250
v -0.171875 0.218750 0.781250
v 0.187500 0.156250 0.773438
v -0.187500 0.156250 0.773438
v 0.335938 0.429688 0.757812
v -0.335938 0.429688 0.757812
v 0.273438 0.421875 0.773438
v -0.273438 0.421875 0.773438
v 0.421875 0.398438 0.773438
v -0.421875 0.398438 0.773438
v 0.562500 0.351562 0.695312
v -0.562500 0.351562 0.695312
v 0.585938 0.289062 0.687500
v -0.585938 0.289062 0.687500
v 0.578125 0.195312 0.679688
v -0.578125 0.195312 0.679688
v 0.476562 0.101562 0.718750
v -0.476562 0.101562 0.718750
v 0.375000 0.062500 0.742188
v -0.375000 0.062500 0.742188
v 0.226562 0.109375 0.781250
v -0.226562 0.109375 0.781250
v 0.179688 0.296875 0.781250
v -0.179688 0.296875 0.781250
v 0.210938 0.375000 0.781250
v -0.210938 0.375000 0.781250
v 0.234375 0.359375 0.757812
v -0.234375 0.359375 0.757812
v 0.195312 0.296875 0.757812
v -0.195312 0.296875 0.757812
v 0.242188 0.125000 0.757812
v -0.242188 0.125000 0.757812
v 0.375000 0.085938 0.726562
v -0.375000 0.085938 0.726562
v 0.460938 0.117188 0.703125
v -0.460938 0.117188 0.703125
v 0.546875 0.210938 0.671875
v -0.546875 0.210938 0.671875
v 0.554688 0.281250 0.671875
v -0.554688 0.281250 0.671875
v 0.531250 0.335938 0.679688
v -0.531250 0.335938 0.679688
v 0.414062 0.390625 0.750000
v -0.414062 0.390625 0.750000
v 0.281250 0.398438 0.765625
v -0.281250 0.398438 0.765625
v 0.335938 0.406250 0.750000
v -0.335938 0.406250 0.750000
v 0.203125 0.171875 0.750000
v -0.203125 0.171875 0.750000
v 0.195312 0.226562 0.750000
v -0.195312 0.226562 0.750000
v 0.109375 0.460938 0.609375
v -0.109375 0.460938 0.609375
v 0.195312 0.664062 0.617188
v -0.195312 0.664062 0.617188
v 0.335938 0.687500 0.593750
v -0.335938 0.687500 0.593750
v 0.484375 0.554688 0.554688
v -0.484375 0.554688 0.554688
v 0.679688 0.453125 0.492188
v -0.679688 0.453125 0.492188
v 0.796875 0.406250 0.460938
v -0.796875 0.406250 0.460938
v 0.773438 0.164062 0.375000
v -0.773438 0.164062 0.375000
v 0.601562 0.000000 0.414062
v -0.601562 0.000000 0.414062
v 0.437500 -0.093750 0.468750
v -0.437500 -0.093750 0.468750
v 0.000000 0.898438 0.289062
v 0.000000 0.984375 -0.078125
v 0.000000 -0.195312 -0.671875
v 0.000000 -0.460938 0.187500
v 0.000000 -0.976562 0.460938
v 0.000000 -0.804688 0.343750
v 0.000000 -0.570312 0.320312
v 0.000000 -0.484375 0.281250
v 0.851562 0.234375 0.054688
v -0.851562 0.234375 0.054688
v 0.859375 0.320312 -0.046875
v -0.859375 0.320312 -0.046875
v 0.773438 0.265625 -0.437500
v -0.773438 0.265625 -0.437500
v 0.460938 0.437500 -0.703125
v -0.460938 0.437500 -0.703125
v 0.734375 -0.046875 0.070312
v -0.734375 -0.046875 0.070312
v 0.593750 -0.125000 -0.164062
v -0.593750 -0.125000 -0.164062
v 0.640625 -0.007812 -0.429688
v -0.640625 -0.007812 -0.429688
v 0.335938 0.054688 -0.664062
v -0.335938 0.054688 -0.664062
v 0.234375 -0.351562 0.406250
v -0.234375 -0.351562 0.406250
v 0.179688 -0.414062 0.257812
v -0.179688 -0.414062 0.257812
v 0.289062 -0.710938 0.382812
v -0.289062 -0.710938 0.382812
v 0.250000 -0.500000 0.390625
v -0.250000 -0.500000 0.390625
v 0.328125 -0.914062 0.398438
v -0.328125 -0.914062 0.398438
v 0.140625 -0.757812 0.367188
v -0.140625 -0.757812 0.367188
v 0.125000 -0.539062 0.359375
v -0.125000 -0.539062 0.359375
v 0.164062 -0.945312 0.437500
v -0.164062 -0.945312 0.437500
v 0.218750 -0.281250 0.429688
v -0.218750 -0.281250 0.429688
v 0.210938 -0.226562 0.468750
v -0.210938 -0.226562 0.468750
v 0.203125 -0.171875 0.500000
v -0.203125 -0.171875 0.500000
v 0.210938 -0.390625 0.164062
v -0.210938 -0.390625 0.164062
v 0.296875 -0.312500 -0.265625
v -0.296875 -0.312500 -0.265625
v 0.343750 -0.148438 -0.539062
v -0.343750 -0.148438 -0.539062
v 0.453125 0.867188 -0.382812
v -0.453125 0.867188 -0.382812
v 0.453125 0.929688 -0.070312
v -0.453125 0.929688 -0.070312
v 0.453125 0.851562 0.234375
v -0.453125 0.851562 0.234375
v 0.460938 0.523438 0.429688
v -0.460938 0.523438 0.429688
v 0.726562 0.406250 0.335938
v -0.726562 0.406250 0.335938
v 0.632812 0.453125 0.281250
v -0.632812 0.453125 0.281250
v 0.640625 0.703125 0.054688
v -0.640625 0.703125 0.054688
v 0.796875 0.562500 0.125000
v -0.796875 0.562500 0.125000
v 0.796875 0.617188 -0.117188
v -0.796875 0.617188 -0.117188
v 0.640625 0.750000 -0.195312
v -0.640625 0.750000 -0.195312
v 0.640625 0.679688 -0.445312
v -0.640625 0.679688 -0.445312
v 0.796875 0.539062 -0.359375
v -0.796875 0.539062 -0.359375
v 0.617188 0.328125 -0.585938
v -0.617188 0.328125 -0.585938
v 0.484375 0.023438 -0.546875
v -0.484375 0.023438 -0.546875
v 0.820312 0.328125 -0.203125
v -0.820312 0.328125 -0.203125
v 0.406250 -0.171875 0.148438
v -0.406250 -0.171875 0.148438
v 0.429688 -0.195312 -0.210938
v -0.429688 -0.195312 -0.210938
v 0.890625 0.406250 -0.234375
v -0.890625 0.406250 -0.234375
v 0.773438 -0.140625 -0.125000
v -0.773438 -0.140625 -0.125000
v 1.039062 -0.101562 -0.328125
v -1.039062 -0.101562 -0.328125
v 1.281250 0.054688 -0.429688
v -1.281250 0.054688 -0.429688
v 1.351562 0.320312 -0.421875
v -1.351562 0.320312 -0.421875
v 1.234375 0.507812 -0.421875
v -1.234375 0.507812 -0.421875
v 1.023438 0.476562 -0.312500
v -1.023438 0.476562 -0.312500
v 1.015625 0.414062 -0.289062
v -1.015625 0.414062 -0.289062
v 1.187500 0.437500 -0.390625
v -1.187500 0.437500 -0.390625
v 1.265625 0.289062 -0.406250
v -1.265625 0.289062 -0.406250
v 1.210938 0.078125 -0.406250
v -1.210938 0.078125 -0.406250
v 1.031250 -0.039062 -0.304688
v -1.031250 -0.039062 -0.304688
v 0.828125 -0.070312 -0.132812
v -0.828125 -0.070312 -0.132812
v 0.921875 0.359375 -0.218750
v -0.921875 0.359375 -0.218750
v 0.945312 0.304688 -0.289062
v -0.945312 0.304688 -0.289062
v 0.882812 -0.023438 -0.210938
v -0.882812 -0.023438 -0.210938
v 1.039062 0.000000 -0.367188
v -1.039062 0.000000 -0.367188
v 1.187500 0.093750 -0.445312
v -1.187500 0.093750 -0.445312
v 1.234375 0.250000 -0.445312
v -1.234375 0.250000 -0.445312
v 1.171875 0.359375 -0.437500
v -1.171875 0.359375 -0.437500
v 1.023438 0.343750 -0.359375
v -1.023438 0.343750 -0.359375
v 0.843750 0.289062 -0.210938
v -0.843750 0.289062 -0.210938
v 0.835938 0.171875 -0.273438
v -0.835938 0.171875 -0.273438
v 0.757812 0.093750 -0.273438
v -0.757812 0.093750 -0.273438
v 0.820312 0.085938 -0.273438
v -0.820312 0.085938 -0.273438
v 0.843750 0.015625 -0.273438
v -0.843750 0.015625 -0.273438
v 0.812500 -0.015625 -0.273438
v -0.812500 -0.015625 -0.273438
v 0.726562 0.000000 -0.070312
v -0.726562 0.000000 -0.070312
v 0.718750 -0.023438 -0.171875
v -0.718750 -0.023438 -0.171875
v 0.718750 0.039062 -0.187500
v -0.718750 0.039062 -0.187500
v 0.796875 0.203125 -0.210938
v -0.796875 0.203125 -0.210938
v 0.890625 0.242188 -0.265625
v -0.890625 0.242188 -0.265625
v 0.890625 0.234375 -0.320312
v -0.890625 0.234375 -0.320312
v 0.812500 -0.015625 -0.320312
v -0.812500 -0.015625 -0.320312
v 0.851562 0.015625 -0.320312
v -0.851562 0.015625 -0.320312
v 0.828125 0.078125 -0.320312
v -0.828125 0.078125 -0.320312
v 0.765625 0.093750 -0.320312
v -0.765625 0.093750 -0.320312
v 0.843750 0.171875 -0.320312
v -0.843750 0.171875 -0.320312
v 1.039062 0.328125 -0.414062
v -1.039062 0.328125 -0.414062
v 1.187500 0.343750 -0.484375
v -1.187500 0.343750 -0.484375
v 1.257812 0.242188 -0.492188
v -1.257812 0.242188 -0.492188
v 1.210938 0.085938 -0.484375
v -1.210938 0.085938 -0.484375
v 1.046875 0.000000 -0.421875
v -1.046875 0.000000 -0.421875
v 0.882812 -0.015625 -0.265625
v -0.882812 -0.015625 -0.265625
v 0.953125 0.289062 -0.343750
v -0.953125 0.289062 -0.343750
v 0.890625 0.109375 -0.328125
v -0.890625 0.109375 -0.328125
v 0.937500 0.062500 -0.335938
v -0.937500 0.062500 -0.335938
v 1.000000 0.125000 -0.367188
v -1.000000 0.125000 -0.367188
v 0.960938 0.171875 -0.351562
v -0.960938 0.171875 -0.351562
v 1.015625 0.234375 -0.375000
v -1.015625 0.234375 -0.375000
v 1.054688 0.187500 -0.382812
v -1.054688 0.187500 -0.382812
v 1.109375 0.210938 -0.390625
v -1.109375 0.210938 -0.390625
v 1.085938 0.273438 -0.390625
v -1.085938 0.273438 -0.390625
v 1.023438 0.437500 -0.484375
v -1.023438 0.437500 -0.484375
v 1.250000 0.468750 -0.546875
v -1.250000 0.468750 -0.546875
v 1.367188 0.296875 -0.500000
v -1.367188 0.296875 -0.500000
v 1.312500 0.054688 -0.531250
v -1.312500 0.054688 -0.531250
v 1.039062 -0.085938 -0.492188
v -1.039062 -0.085938 -0.492188
v 0.789062 -0.125000 -0.328125
v -0.789062 -0.125000 -0.328125
v 0.859375 0.382812 -0.382812
v -0.859375 0.382812 -0.382812
vt 0.943088 0.229138
vt 0.943430 0.212352
vt 0.967811 0.203650
vt 0.968398 0.240378
vt 0.881811 0.053950
vt 0.905782 0.063725
vt 0.905379 0.080509
vt 0.879595 0.090616
vt 0.999638 0.197819
vt 0.997175 0.253252
vt 0.850275 0.046712
vt 0.850275 0.102199
vt 0.942504 0.177909
vt 0.960034 0.152797
vt 0.891838 0.003492
vt 0.908237 0.029357
vt 0.930960 0.198962
vt 0.918835 0.050902
vt 0.913867 0.198718
vt 0.907350 0.177307
vt 0.943383 0.030316
vt 0.935921 0.051417
vt 0.897370 0.146636
vt 0.954714 0.000119
vt 0.878313 0.199605
vt 0.850275 0.189019
vt 0.999881 0.044550
vt 0.971401 0.053881
vt 0.899972 0.209781
vt 0.949311 0.063086
vt 0.900288 0.228740
vt 0.879604 0.236914
vt 0.968455 0.091096
vt 0.948155 0.082012
vt 0.852582 0.252205
vt 0.994772 0.107571
vt 0.904479 0.262931
vt 0.897461 0.293065
vt 0.948124 0.146399
vt 0.942450 0.115983
vt 0.911851 0.241460
vt 0.936038 0.094206
vt 0.930144 0.241750
vt 0.940633 0.264439
vt 0.906264 0.115885
vt 0.917750 0.093684
vt 0.956504 0.293065
vt 0.889138 0.143778
vt 0.928356 0.238552
vt 0.940436 0.228011
vt 0.919679 0.090568
vt 0.908078 0.079502
vt 0.913209 0.236424
vt 0.934905 0.089114
vt 0.904730 0.226568
vt 0.943813 0.079645
vt 0.905789 0.212588
vt 0.943376 0.065632
vt 0.915120 0.203485
vt 0.934458 0.056123
vt 0.928127 0.203306
vt 0.921472 0.055367
vt 0.939870 0.213212
vt 0.909300 0.064742
vt 0.921254 0.219599
vt 0.927615 0.071949
vt 0.350809 0.545528
vt 0.350997 0.546197
vt 0.349714 0.546727
vt 0.349526 0.546144
vt 0.348341 0.547061
vt 0.348096 0.546382
vt 0.351613 0.545037
vt 0.351525 0.545968
vt 0.347752 0.547194
vt 0.347108 0.546437
vt 0.352030 0.544977
vt 0.352357 0.546297
vt 0.347241 0.548007
vt 0.346700 0.546639
vt 0.353861 0.544992
vt 0.353549 0.547117
vt 0.346762 0.549524
vt 0.345015 0.547838
vt 0.359669 0.544731
vt 0.359268 0.550590
vt 0.344442 0.557307
vt 0.338628 0.552216
vt 0.373593 0.543308
vt 0.381829 0.532249
vt 0.391477 0.538186
vt 0.386195 0.565918
vt 0.226869 0.630736
vt 0.269696 0.556374
vt 0.315780 0.570045
vt 0.355470 0.605910
vt 0.387085 0.523085
vt 0.392539 0.522999
vt 0.178847 0.496590
vt 0.231376 0.511485
vt 0.388693 0.512523
vt 0.395087 0.515622
vt 0.199628 0.410391
vt 0.261072 0.447721
vt 0.395695 0.507944
vt 0.398966 0.510050
vt 0.255571 0.357546
vt 0.278212 0.392213
vt 0.399491 0.505402
vt 0.402308 0.508981
vt 0.279658 0.323968
vt 0.301177 0.363708
vt 0.409233 0.500353
vt 0.413997 0.504887
vt 0.411278 0.287002
vt 0.378116 0.338407
vt 0.416810 0.496138
vt 0.419622 0.500769
vt 0.456002 0.337402
vt 0.427793 0.366315
vt 0.421197 0.494073
vt 0.424409 0.498962
vt 0.477203 0.367344
vt 0.446046 0.382511
vt 0.444546 0.481622
vt 0.449489 0.503776
vt 0.533496 0.445312
vt 0.473000 0.438607
vt 0.467946 0.467995
vt 0.495281 0.509545
vt 0.437311 0.514223
vt 0.426007 0.510938
vt 0.602817 0.277511
vt 0.619183 0.400774
vt 0.420083 0.510930
vt 0.540795 0.205259
vt 0.413201 0.511910
vt 0.395027 0.140883
vt 0.403925 0.513005
vt 0.224091 0.264941
vt 0.400528 0.515095
vt 0.178207 0.330217
vt 0.397702 0.519502
vt 0.129887 0.415864
vt 0.396138 0.529403
vt 0.143386 0.584728
vt 0.397311 0.538511
vt 0.221488 0.687876
vt 0.411626 0.553036
vt 0.406691 0.811126
vt 0.422181 0.554725
vt 0.413783 0.599787
vt 0.482145 0.792094
vt 0.446309 0.532905
vt 0.631719 0.573745
vt 0.472117 0.579379
vt 0.436304 0.549647
vt 0.562292 0.705948
vt 0.350522 0.547217
vt 0.349924 0.547356
vt 0.349358 0.547610
vt 0.351247 0.547355
vt 0.348854 0.548178
vt 0.352034 0.548741
vt 0.349118 0.549811
vt 0.356428 0.555252
vt 0.352464 0.549010
vt 0.348960 0.550321
vt 0.350760 0.558100
vt 0.363841 0.560791
vt 0.357289 0.563203
vt 0.353826 0.556933
vt 0.351941 0.568886
vt 0.350967 0.550260
vt 0.350543 0.549122
vt 0.370370 0.561122
vt 0.368826 0.564933
vt 0.365356 0.563523
vt 0.354538 0.571608
vt 0.355301 0.576072
vt 0.349847 0.577224
vt 0.377062 0.566760
vt 0.373032 0.568114
vt 0.358665 0.581751
vt 0.356594 0.587740
vt 0.373987 0.581237
vt 0.372412 0.572934
vt 0.364296 0.580989
vt 0.367686 0.577177
vt 0.366388 0.574628
vt 0.358765 0.565380
vt 0.365617 0.565959
vt 0.360298 0.567466
vt 0.357229 0.572585
vt 0.364330 0.572441
vt 0.369941 0.571383
vt 0.362711 0.578210
vt 0.370689 0.568668
vt 0.359559 0.578857
vt 0.367920 0.566625
vt 0.357512 0.575301
vt 0.370885 0.556118
vt 0.342079 0.576265
vt 0.365578 0.553914
vt 0.342815 0.567112
vt 0.365378 0.544038
vt 0.330335 0.557615
vt 0.368960 0.543773
vt 0.324662 0.562391
vt 0.350486 0.548966
vt 0.351655 0.548583
vt 0.349319 0.549432
vt 0.351127 0.547616
vt 0.349119 0.548312
vt 0.350433 0.547417
vt 0.349554 0.547716
vt 0.349970 0.547492
vt 0.350403 0.547904
vt 0.350121 0.547932
vt 0.349882 0.548085
vt 0.350734 0.547955
vt 0.349652 0.548334
vt 0.350916 0.548259
vt 0.349700 0.548691
vt 0.350302 0.548451
vt 0.422141 0.548226
vt 0.430912 0.543243
vt 0.520118 0.855290
vt 0.639677 0.760268
vt 0.434516 0.531834
vt 0.739832 0.593973
vt 0.431515 0.520406
vt 0.745844 0.389458
vt 0.413647 0.546898
vt 0.396151 0.871718
vt 0.401845 0.536968
vt 0.175021 0.753639
vt 0.399876 0.529432
vt 0.069115 0.620525
vt 0.399962 0.521261
vt 0.066767 0.418122
vt 0.402960 0.517223
vt 0.111015 0.276274
vt 0.405710 0.514931
vt 0.195498 0.204162
vt 0.413612 0.514897
vt 0.400666 0.053159
vt 0.419420 0.514386
vt 0.582094 0.122586
vt 0.424605 0.515442
vt 0.681224 0.228153
vt 0.427384 0.522524
vt 0.423562 0.517404
vt 0.850038 0.358041
vt 0.739714 0.193244
vt 0.419082 0.516155
vt 0.612175 0.067663
vt 0.413731 0.516146
vt 0.400916 0.000119
vt 0.406709 0.516816
vt 0.145388 0.137866
vt 0.404093 0.518695
vt 0.051533 0.251312
vt 0.401853 0.521843
vt 0.000119 0.401553
vt 0.401523 0.529239
vt 0.027711 0.638496
vt 0.403483 0.535430
vt 0.135853 0.785177
vt 0.414426 0.543579
vt 0.378205 0.933393
vt 0.421942 0.543324
vt 0.570388 0.933393
vt 0.430369 0.531219
vt 0.823133 0.607818
vt 0.427046 0.539279
vt 0.736470 0.829715
vt 0.422812 0.466921
vt 0.429657 0.455458
vt 0.426620 0.435659
vt 0.417095 0.489282
vt 0.425141 0.395043
vt 0.413334 0.493557
vt 0.409207 0.379032
vt 0.404380 0.494663
vt 0.368662 0.380353
vt 0.395658 0.501942
vt 0.316901 0.395652
vt 0.392678 0.505198
vt 0.296791 0.410338
vt 0.385822 0.511215
vt 0.277017 0.456285
vt 0.381997 0.520229
vt 0.265631 0.503038
vt 0.378912 0.529025
vt 0.277225 0.539642
vt 0.347237 0.537377
vt 0.346566 0.533397
vt 0.356158 0.530820
vt 0.351878 0.537108
vt 0.335011 0.532869
vt 0.342497 0.538873
vt 0.348618 0.543069
vt 0.350482 0.542455
vt 0.346637 0.543481
vt 0.349241 0.545225
vt 0.350492 0.544666
vt 0.347865 0.545457
vt 0.351541 0.544410
vt 0.346798 0.545838
vt 0.352576 0.542920
vt 0.344941 0.545075
vt 0.356270 0.538849
vt 0.338320 0.542982
vt 0.362213 0.537196
vt 0.328774 0.544339
vt 0.365999 0.537011
vt 0.369328 0.538519
vt 0.317040 0.553368
vt 0.321809 0.546495
vt 0.372346 0.539607
vt 0.312113 0.559929
vt 0.354060 0.495573
vt 0.359159 0.499042
vt 0.358122 0.503242
vt 0.351866 0.500341
vt 0.344428 0.497789
vt 0.347425 0.493313
vt 0.356984 0.510421
vt 0.349011 0.508423
vt 0.339943 0.506142
vt 0.356352 0.526149
vt 0.346157 0.528889
vt 0.333673 0.526565
vt 0.373670 0.510966
vt 0.377566 0.504211
vt 0.313829 0.489036
vt 0.321122 0.470656
vt 0.357778 0.489212
vt 0.363374 0.494191
vt 0.349705 0.485557
vt 0.382262 0.466228
vt 0.383495 0.483466
vt 0.375341 0.485137
vt 0.370330 0.474653
vt 0.358881 0.466930
vt 0.363828 0.454478
vt 0.369460 0.487790
vt 0.362203 0.482981
vt 0.355363 0.475232
vt 0.388953 0.501664
vt 0.389061 0.497023
vt 0.314718 0.428127
vt 0.333673 0.428773
vt 0.380968 0.496994
vt 0.379968 0.491259
vt 0.335258 0.456459
vt 0.348524 0.458106
vt 0.375583 0.495126
vt 0.373961 0.491063
vt 0.341933 0.467660
vt 0.349642 0.469254
vt 0.371016 0.495930
vt 0.369401 0.492544
vt 0.343016 0.476096
vt 0.349002 0.476891
vt 0.367837 0.499905
vt 0.365341 0.497161
vt 0.344903 0.485006
vt 0.339462 0.483705
vt 0.398347 0.490439
vt 0.364266 0.406219
vt 0.414515 0.454681
vt 0.376066 0.501521
vt 0.328618 0.471067
vt 0.372443 0.500330
vt 0.334476 0.476767
vt 0.361736 0.509973
vt 0.366824 0.520523
vt 0.334107 0.502084
vt 0.317109 0.515206
vt 0.366016 0.508787
vt 0.329477 0.496377
vt 0.364800 0.502650
vt 0.361792 0.501137
vt 0.343111 0.492342
vt 0.338551 0.490456
vt 0.369581 0.501599
vt 0.370229 0.501071
vt 0.370424 0.501402
vt 0.369792 0.501678
vt 0.334776 0.481286
vt 0.335498 0.481261
vt 0.335331 0.482813
vt 0.334992 0.482567
vt 0.369364 0.501981
vt 0.369244 0.501944
vt 0.334976 0.483542
vt 0.335159 0.483685
vt 0.369237 0.502179
vt 0.369175 0.502118
vt 0.334810 0.483945
vt 0.334969 0.483973
vt 0.369067 0.502467
vt 0.368991 0.502355
vt 0.334558 0.484508
vt 0.334807 0.484502
vt 0.368781 0.503176
vt 0.368524 0.503109
vt 0.333816 0.485710
vt 0.334197 0.486008
vt 0.368620 0.504914
vt 0.367962 0.505332
vt 0.331413 0.487979
vt 0.331601 0.489415
vt 0.369040 0.502985
vt 0.368968 0.504263
vt 0.331969 0.486700
vt 0.333811 0.485119
vt 0.369154 0.502483
vt 0.334440 0.484396
vt 0.369258 0.502250
vt 0.334680 0.483988
vt 0.369402 0.502120
vt 0.334723 0.483631
vt 0.369800 0.502019
vt 0.334455 0.482909
vt 0.370348 0.501998
vt 0.333905 0.482027
vt 0.369839 0.506454
vt 0.371720 0.507962
vt 0.327502 0.488111
vt 0.322296 0.487217
vt 0.371791 0.501609
vt 0.333008 0.479242
vt 0.369642 0.504403
vt 0.330957 0.485849
vt 0.369902 0.504197
vt 0.370684 0.505681
vt 0.327634 0.485793
vt 0.330964 0.485202
vt 0.370695 0.504198
vt 0.370242 0.504024
vt 0.330017 0.483960
vt 0.330832 0.484469
vt 0.371008 0.503243
vt 0.372157 0.503254
vt 0.329798 0.480419
vt 0.331177 0.482340
vt 0.370888 0.502399
vt 0.332681 0.481588
vt 0.370488 0.502616
vt 0.370123 0.502237
vt 0.332771 0.482471
vt 0.333770 0.482636
vt 0.370557 0.503191
vt 0.331779 0.483004
vt 0.370498 0.503848
vt 0.330808 0.483860
vt 0.370148 0.503740
vt 0.331386 0.484282
vt 0.369729 0.503945
vt 0.331558 0.485172
vt 0.369661 0.504152
vt 0.331322 0.485521
vt 0.369226 0.504041
vt 0.332002 0.486052
vt 0.369688 0.502152
vt 0.334370 0.483224
vt 0.369393 0.502199
vt 0.334614 0.483728
vt 0.369314 0.502303
vt 0.334540 0.483961
vt 0.334373 0.484267
vt 0.369184 0.502861
vt 0.333836 0.484765
vt 0.369613 0.503308
vt 0.370014 0.503310
vt 0.332671 0.484617
vt 0.332211 0.483997
vt 0.369636 0.502826
vt 0.369922 0.502787
vt 0.333388 0.484039
vt 0.333128 0.483553
vt 0.369630 0.502550
vt 0.369796 0.502447
vt 0.333818 0.483744
vt 0.333795 0.483375
vt 0.369530 0.502427
vt 0.369603 0.502318
vt 0.334116 0.483764
vt 0.334205 0.483534
vt 0.366360 0.503740
vt 0.368360 0.502470
vt 0.335604 0.489680
vt 0.335310 0.485556
vt 0.368935 0.502206
vt 0.335092 0.484427
vt 0.369109 0.502104
vt 0.335061 0.484058
vt 0.369129 0.501968
vt 0.335244 0.483883
vt 0.369056 0.501623
vt 0.335837 0.483632
vt 0.368958 0.500274
vt 0.337890 0.482438
vn 0.665000 -0.200800 0.719400
vn -0.665000 -0.200800 0.719400
vn 0.829400 -0.303600 0.468900
vn -0.829400 -0.303600 0.468900
vn 0.415500 -0.793300 0.444900
vn -0.415500 -0.793300 0.444900
vn 0.360000 -0.508900 0.782000
vn -0.360000 -0.508900 0.782000
vn -0.078700 -0.539400 0.838400
vn 0.078700 -0.539400 0.838400
vn -0.269600 -0.841300 0.468500
vn 0.269600 -0.841300 0.468500
vn -0.770700 -0.335200 0.542000
vn 0.770700 -0.335200 0.542000
vn -0.468900 -0.194000 0.861700
vn 0.468900 -0.194000 0.861700
vn -0.476700 0.190700 0.858100
vn 0.476700 0.190700 0.858100
vn -0.767200 0.326400 0.552100
vn 0.767200 0.326400 0.552100
vn -0.251900 0.817300 0.518200
vn 0.251900 0.817300 0.518200
vn -0.094900 0.569600 0.816400
vn 0.094900 0.569600 0.816400
vn 0.366700 0.537000 0.759700
vn -0.366700 0.537000 0.759700
vn 0.414100 0.767200 0.489800
vn -0.414100 0.767200 0.489800
vn 0.827700 0.295200 0.477100
vn -0.827700 0.295200 0.477100
vn 0.671300 0.197100 0.714500
vn -0.671300 0.197100 0.714500
vn 0.811100 0.324400 -0.486700
vn -0.811100 0.324400 -0.486700
vn 0.205200 0.820600 -0.533400
vn -0.205200 0.820600 -0.533400
vn -0.422300 0.780600 -0.460700
vn 0.422300 0.780600 -0.460700
vn -0.824100 0.322500 -0.465800
vn 0.824100 0.322500 -0.465800
vn -0.813700 -0.348700 -0.465000
vn 0.813700 -0.348700 -0.465000
vn -0.422300 -0.780600 -0.460700
vn 0.422300 -0.780600 -0.460700
vn 0.205200 -0.820600 -0.533400
vn -0.205200 -0.820600 -0.533400
vn 0.799500 -0.351000 -0.487500
vn -0.799500 -0.351000 -0.487500
vn 0.400000 -0.062300 0.914400
vn -0.400000 -0.062300 0.914400
vn 0.306900 -0.175400 0.935400
vn -0.306900 -0.175400 0.935400
vn 0.094500 -0.183500 0.978500
vn -0.094500 -0.183500 0.978500
vn -0.062400 -0.028300 0.997700
vn 0.062400 -0.028300 0.997700
vn -0.062400 0.026000 0.997700
vn 0.062400 0.026000 0.997700
vn 0.099600 0.172900 0.979900
vn -0.099600 0.172900 0.979900
vn 0.303600 0.165600 0.938300
vn -0.303600 0.165600 0.938300
vn 0.400200 0.057200 0.914700
vn -0.400200 0.057200 0.914700
vn 0.123100 -0.861600 0.492400
vn -0.123100 -0.861600 0.492400
vn 0.219000 -0.864700 0.452000
vn -0.219000 -0.864700 0.452000
vn 0.590200 -0.455000 0.666800
vn -0.590200 -0.455000 0.666800
vn 0.768900 -0.050600 0.637400
vn -0.768900 -0.050600 0.637400
vn 0.779600 0.090000 0.619700
vn -0.779600 0.090000 0.619700
vn 0.324100 -0.818800 0.473900
vn -0.324100 -0.818800 0.473900
vn 0.385700 -0.662900 0.641700
vn -0.385700 -0.662900 0.641700
vn 0.689500 -0.419300 0.590600
vn -0.689500 -0.419300 0.590600
vn 0.658800 -0.363400 0.658800
vn -0.658800 -0.363400 0.658800
vn 0.546500 0.370700 0.750900
vn -0.546500 0.370700 0.750900
vn 0.506400 0.646400 0.570600
vn -0.506400 0.646400 0.570600
vn 0.609200 0.516700 0.601500
vn -0.609200 0.516700 0.601500
vn -0.044100 0.661000 0.749100
vn 0.044100 0.661000 0.749100
vn -0.724600 0.318700 0.611000
vn 0.724600 0.318700 0.611000
vn -0.588000 0.555400 0.588000
vn 0.588000 0.555400 0.588000
vn 0.536100 -0.390900 0.748200
vn -0.536100 -0.390900 0.748200
vn 0.220700 -0.469000 0.855200
vn -0.220700 -0.469000 0.855200
vn -0.079400 -0.532100 0.842900
vn 0.079400 -0.532100 0.842900
vn -0.082500 -0.657500 0.749000
vn 0.082500 -0.657500 0.749000
vn 0.045700 -0.566700 0.822600
vn -0.045700 -0.566700 0.822600
vn 0.278400 -0.213000 0.936500
vn -0.278400 -0.213000 0.936500
vn 0.381300 -0.182400 0.906300
vn -0.381300 -0.182400 0.906300
vn 0.335700 -0.287800 0.896900
vn -0.335700 -0.287800 0.896900
vn 0.376200 0.060300 0.924600
vn -0.376200 0.060300 0.924600
vn -0.135200 0.268000 0.953900
vn 0.135200 0.268000 0.953900
vn 0.396100 -0.432100 0.810200
vn -0.396100 -0.432100 0.810200
vn 0.185600 -0.247400 0.951000
vn -0.185600 -0.247400 0.951000
vn 0.009900 -0.194800 0.980800
vn -0.009900 -0.194800 0.980800
vn 0.072100 -0.696600 0.713800
vn -0.072100 -0.696600 0.713800
vn 0.186300 -0.572300 0.798600
vn -0.186300 -0.572300 0.798600
vn 0.315700 -0.270800 0.909400
vn -0.315700 -0.270800 0.909400
vn 0.306300 -0.026500 0.951600
vn -0.306300 -0.026500 0.951600
vn 0.326600 -0.130600 0.936100
vn -0.326600 -0.130600 0.936100
vn -0.013700 0.057400 0.998300
vn 0.013700 0.057400 0.998300
vn -0.002600 -0.065600 0.997800
vn 0.002600 -0.065600 0.997800
vn 0.000000 0.000000 1.000000
vn 0.817400 -0.574400 -0.044200
vn -0.817400 -0.574400 -0.044200
vn 0.949400 0.229700 -0.214400
vn -0.949400 0.229700 -0.214400
vn 0.082500 0.907300 -0.412400
vn -0.082500 0.907300 -0.412400
vn -0.883600 0.355500 0.304700
vn 0.883600 0.355500 0.304700
vn 0.420700 -0.879700 0.221800
vn -0.420700 -0.879700 0.221800
vn 0.287300 -0.574700 0.766300
vn -0.287300 -0.574700 0.766300
vn -0.654200 0.601900 0.458000
vn 0.654200 0.601900 0.458000
vn 0.105200 0.789200 0.605100
vn -0.105200 0.789200 0.605100
vn 0.758200 0.291600 0.583200
vn -0.758200 0.291600 0.583200
vn 0.388900 -0.713000 0.583400
vn -0.388900 -0.713000 0.583400
vn 0.046300 0.231400 0.971800
vn -0.046300 0.231400 0.971800
vn 0.033500 -0.401800 0.915100
vn -0.033500 -0.401800 0.915100
vn -0.445200 -0.161000 0.880900
vn 0.445200 -0.161000 0.880900
vn -0.218200 -0.436400 0.872900
vn 0.218200 -0.436400 0.872900
vn 0.434100 -0.129000 0.891600
vn -0.434100 -0.129000 0.891600
vn 0.300800 0.050100 0.952400
vn -0.300800 0.050100 0.952400
vn 0.812300 0.301000 0.499600
vn -0.812300 0.301000 0.499600
vn 0.875300 0.257400 0.409300
vn -0.875300 0.257400 0.409300
vn 0.938500 0.160100 0.306000
vn -0.938500 0.160100 0.306000
vn 0.223700 -0.653900 0.722700
vn -0.223700 -0.653900 0.722700
vn -0.153600 -0.199700 0.967700
vn 0.153600 -0.199700 0.967700
vn -0.273300 -0.102500 0.956500
vn 0.273300 -0.102500 0.956500
vn -0.097600 0.195200 0.975900
vn 0.097600 0.195200 0.975900
vn -0.158200 0.949400 0.271300
vn 0.158200 0.949400 0.271300
vn -0.693400 0.708200 0.132800
vn 0.693400 0.708200 0.132800
vn -1.000000 0.000000 0.000000
vn 1.000000 0.000000 0.000000
vn 0.305100 -0.945000 0.118100
vn -0.305100 -0.945000 0.118100
vn 0.029800 -0.298100 0.954100
vn -0.029800 -0.298100 0.954100
vn 0.135300 -0.347900 0.927700
vn -0.135300 -0.347900 0.927700
vn -0.508500 -0.275500 0.815800
vn 0.508500 -0.275500 0.815800
vn -0.384300 -0.041900 0.922300
vn 0.384300 -0.041900 0.922300
vn -0.208300 0.037400 0.977400
vn 0.208300 0.037400 0.977400
vn -0.572100 -0.476700 0.667400
vn 0.572100 -0.476700 0.667400
vn -0.136900 -0.753100 0.643500
vn 0.136900 -0.753100 0.643500
vn 0.408800 -0.607100 0.681400
vn -0.408800 -0.607100 0.681400
vn 0.574000 -0.413000 0.707000
vn -0.574000 -0.413000 0.707000
vn 0.566500 -0.096800 0.818300
vn -0.566500 -0.096800 0.818300
vn 0.570300 0.118000 0.812900
vn -0.570300 0.118000 0.812900
vn 0.482300 0.562100 0.671900
vn -0.482300 0.562100 0.671900
vn 0.260400 0.611400 0.747300
vn -0.260400 0.611400 0.747300
vn 0.164000 0.360700 0.918200
vn -0.164000 0.360700 0.918200
vn -0.017800 0.249500 0.968200
vn 0.017800 0.249500 0.968200
vn 0.327300 -0.416600 0.848100
vn -0.327300 -0.416600 0.848100
vn 0.281100 -0.261000 0.923500
vn -0.281100 -0.261000 0.923500
vn -0.254200 -0.651400 0.714900
vn 0.254200 -0.651400 0.714900
vn -0.026000 -0.845500 0.533300
vn 0.026000 -0.845500 0.533300
vn -0.351800 -0.260600 0.899100
vn 0.351800 -0.260600 0.899100
vn -0.352300 -0.011000 0.935800
vn 0.352300 -0.011000 0.935800
vn -0.131700 0.460800 0.877700
vn 0.131700 0.460800 0.877700
vn -0.034200 0.615900 0.787000
vn 0.034200 0.615900 0.787000
vn 0.360300 0.583600 0.727700
vn -0.360300 0.583600 0.727700
vn 0.498800 0.530000 0.685800
vn -0.498800 0.530000 0.685800
vn 0.666700 -0.333300 0.666700
vn -0.666700 -0.333300 0.666700
vn 0.816500 -0.073100 0.572700
vn -0.816500 -0.073100 0.572700
vn 0.784000 0.116100 0.609800
vn -0.784000 0.116100 0.609800
vn -0.530600 0.811100 -0.246100
vn 0.530600 0.811100 -0.246100
vn -0.851100 0.369500 -0.373000
vn 0.851100 0.369500 -0.373000
vn -0.244600 0.867500 -0.433100
vn 0.244600 0.867500 -0.433100
vn 0.592400 0.746500 -0.303000
vn -0.592400 0.746500 -0.303000
vn 0.368500 0.875800 -0.311800
vn -0.368500 0.875800 -0.311800
vn 0.282100 0.915100 -0.288000
vn -0.282100 0.915100 -0.288000
vn 0.856100 0.134000 -0.499100
vn -0.856100 0.134000 -0.499100
vn 0.534200 -0.723300 -0.437600
vn -0.534200 -0.723300 -0.437600
vn 0.384900 -0.813100 -0.436800
vn -0.384900 -0.813100 -0.436800
vn 0.233500 -0.580600 -0.780000
vn -0.233500 -0.580600 -0.780000
vn 0.244900 -0.058300 -0.967800
vn -0.244900 -0.058300 -0.967800
vn 0.116300 -0.453500 -0.883700
vn -0.116300 -0.453500 -0.883700
vn 0.115200 -0.983600 -0.138800
vn -0.115200 -0.983600 -0.138800
vn 0.118400 -0.966900 -0.226000
vn -0.118400 -0.966900 -0.226000
vn 0.959700 -0.008500 -0.280800
vn -0.959700 -0.008500 -0.280800
vn 0.931900 0.162900 -0.324200
vn -0.931900 0.162900 -0.324200
vn 0.162600 0.020700 -0.986500
vn -0.162600 0.020700 -0.986500
vn -0.018800 -0.217700 -0.975800
vn 0.018800 -0.217700 -0.975800
vn 0.753800 -0.292600 -0.588400
vn -0.753800 -0.292600 -0.588400
vn 0.919600 0.137900 -0.367800
vn -0.919600 0.137900 -0.367800
vn 0.929700 0.312700 -0.194400
vn -0.929700 0.312700 -0.194400
vn 0.912000 0.337600 -0.232900
vn -0.912000 0.337600 -0.232900
vn 0.940700 0.333800 -0.060700
vn -0.940700 0.333800 -0.060700
vn 0.176100 -0.880500 -0.440200
vn -0.176100 -0.880500 -0.440200
vn 0.370800 -0.473300 -0.799100
vn -0.370800 -0.473300 -0.799100
vn 0.310700 -0.828400 -0.466000
vn -0.310700 -0.828400 -0.466000
vn 0.279300 -0.951500 -0.128700
vn -0.279300 -0.951500 -0.128700
vn 0.313900 -0.932100 -0.180700
vn -0.313900 -0.932100 -0.180700
vn 0.976200 -0.208300 -0.060900
vn -0.976200 -0.208300 -0.060900
vn 0.826700 -0.506600 0.244700
vn -0.826700 -0.506600 0.244700
vn 0.344900 -0.115800 -0.931500
vn -0.344900 -0.115800 -0.931500
vn 0.120300 0.964400 0.235500
vn -0.120300 0.964400 0.235500
vn 0.127500 0.974400 -0.185100
vn -0.127500 0.974400 -0.185100
vn 0.349200 0.594700 -0.724100
vn -0.349200 0.594700 -0.724100
vn 0.415300 0.898100 -0.144900
vn -0.415300 0.898100 -0.144900
vn 0.184500 0.703600 0.686300
vn -0.184500 0.703600 0.686300
vn 0.605600 0.779400 0.160800
vn -0.605600 0.779400 0.160800
vn 0.703300 0.680600 -0.205300
vn -0.703300 0.680600 -0.205300
vn 0.667900 0.200700 -0.716600
vn -0.667900 0.200700 -0.716600
vn 0.494800 0.434200 -0.752800
vn -0.494800 0.434200 -0.752800
vn 0.642300 0.745900 -0.176100
vn -0.642300 0.745900 -0.176100
vn 0.718200 0.678800 0.153000
vn -0.718200 0.678800 0.153000
vn 0.738800 0.397200 0.544400
vn -0.738800 0.397200 0.544400
vn 0.342800 0.926100 -0.157900
vn -0.342800 0.926100 -0.157900
vn 0.227000 0.574000 0.786700
vn -0.227000 0.574000 0.786700
vn -0.172200 0.104600 -0.979500
vn 0.172200 0.104600 -0.979500
vn 0.042500 0.915000 0.401300
vn -0.042500 0.915000 0.401300
vn -0.161600 0.184700 0.969400
vn 0.161600 0.184700 0.969400
vn 0.979100 0.197300 0.048300
vn -0.979100 0.197300 0.048300
vn 0.947000 0.091800 0.307900
vn -0.947000 0.091800 0.307900
vn 0.979400 0.190500 -0.066100
vn -0.979400 0.190500 -0.066100
vn 0.993800 0.031200 -0.107000
vn -0.993800 0.031200 -0.107000
vn 0.711600 -0.700800 0.050100
vn -0.711600 -0.700800 0.050100
vn 0.372200 -0.924300 0.084700
vn -0.372200 -0.924300 0.084700
vn 0.446500 -0.864400 0.231000
vn -0.446500 -0.864400 0.231000
vn 0.606600 -0.757800 0.240500
vn -0.606600 -0.757800 0.240500
vn 0.732500 -0.636800 0.240700
vn -0.732500 -0.636800 0.240700
vn 0.263700 -0.449900 0.853300
vn -0.263700 -0.449900 0.853300
vn 0.556800 -0.318100 -0.767300
vn -0.556800 -0.318100 -0.767300
vn 0.500400 -0.280700 -0.819000
vn -0.500400 -0.280700 -0.819000
vn 0.319000 -0.849400 -0.420500
vn -0.319000 -0.849400 -0.420500
vn 0.719800 -0.635600 -0.279300
vn -0.719800 -0.635600 -0.279300
vn 0.497200 -0.440800 -0.747300
vn -0.497200 -0.440800 -0.747300
vn 0.350600 0.380700 0.855700
vn -0.350600 0.380700 0.855700
vn 0.456600 0.171500 0.873000
vn -0.456600 0.171500 0.873000
vn 0.258300 0.105500 0.960300
vn -0.258300 0.105500 0.960300
vn 0.245500 -0.080200 0.966100
vn -0.245500 -0.080200 0.966100
vn 0.464300 -0.059900 0.883700
vn -0.464300 -0.059900 0.883700
vn 0.622500 -0.304500 0.721000
vn -0.622500 -0.304500 0.721000
vn 0.450000 0.659000 0.602700
vn -0.450000 0.659000 0.602700
vn -0.266700 0.830900 0.488400
vn 0.266700 0.830900 0.488400
vn -0.828400 0.229100 0.511100
vn 0.828400 0.229100 0.511100
vn -0.525100 -0.356600 0.772700
vn 0.525100 -0.356600 0.772700
vn 0.454600 -0.566500 0.687300
vn -0.454600 -0.566500 0.687300
vn 0.699600 -0.449700 0.555200
vn -0.699600 -0.449700 0.555200
vn 0.722000 -0.682700 -0.112600
vn -0.722000 -0.682700 -0.112600
vn -0.191900 0.286000 0.938800
vn 0.191900 0.286000 0.938800
vn 0.904800 -0.373400 -0.204700
vn -0.904800 -0.373400 -0.204700
vn 0.103400 0.155100 0.982500
vn -0.103400 0.155100 0.982500
vn 0.084100 0.931800 0.353000
vn -0.084100 0.931800 0.353000
vn 0.644600 -0.088300 0.759400
vn -0.644600 -0.088300 0.759400
vn 0.430900 0.474000 0.767800
vn -0.430900 0.474000 0.767800
vn 0.803200 -0.484700 0.346200
vn -0.803200 -0.484700 0.346200
vn 0.581100 -0.412800 0.701400
vn -0.581100 -0.412800 0.701400
vn 0.591000 -0.430500 0.682200
vn -0.591000 -0.430500 0.682200
vn 0.981800 -0.180400 -0.059100
vn -0.981800 -0.180400 -0.059100
vn 0.910500 -0.396500 -0.117500
vn -0.910500 -0.396500 -0.117500
vn 0.997200 -0.018100 -0.072500
vn -0.997200 -0.018100 -0.072500
vn 0.731300 -0.654300 0.192500
vn -0.731300 -0.654300 0.192500
vn 0.786700 -0.607900 0.107300
vn -0.786700 -0.607900 0.107300
vn 0.702200 -0.702200 0.117000
vn -0.702200 -0.702200 0.117000
vn 0.184000 0.981600 -0.051100
vn -0.184000 0.981600 -0.051100
vn 0.935200 0.330100 0.128400
vn -0.935200 0.330100 0.128400
vn 0.663300 -0.746300 0.055300
vn -0.663300 -0.746300 0.055300
vn -0.008500 0.997000 0.076700
vn 0.008500 0.997000 0.076700
vn 0.623700 -0.706100 0.335400
vn -0.623700 -0.706100 0.335400
vn 0.273300 -0.892500 0.358700
vn -0.273300 -0.892500 0.358700
vn -0.832800 -0.508000 -0.220000
vn 0.832800 -0.508000 -0.220000
vn -0.833900 0.237700 -0.498100
vn 0.833900 0.237700 -0.498100
vn -0.565500 0.784700 -0.253900
vn 0.565500 0.784700 -0.253900
vn -0.056000 0.996200 0.067200
vn 0.056000 0.996200 0.067200
vn 0.144500 0.022200 0.989300
vn -0.144500 0.022200 0.989300
vn 0.327500 0.064500 0.942700
vn -0.327500 0.064500 0.942700
vn 0.312700 0.023200 0.949600
vn -0.312700 0.023200 0.949600
vn 0.171000 0.027400 0.984900
vn -0.171000 0.027400 0.984900
vn 0.348700 0.284900 0.892900
vn -0.348700 0.284900 0.892900
vn 0.400600 -0.034300 0.915600
vn -0.400600 -0.034300 0.915600
vn 0.257200 -0.060300 0.964500
vn -0.257200 -0.060300 0.964500
vn 0.063700 -0.010600 0.997900
vn -0.063700 -0.010600 0.997900
vn -0.363700 0.703900 0.610100
vn 0.363700 0.703900 0.610100
vn 0.629900 0.035500 0.775900
vn -0.629900 0.035500 0.775900
vn 0.447200 -0.200200 0.871700
vn -0.447200 -0.200200 0.871700
vn 0.507200 -0.214100 0.834800
vn -0.507200 -0.214100 0.834800
vn 0.525800 0.261900 0.809300
vn -0.525800 0.261900 0.809300
vn 0.298000 0.580200 0.758000
vn -0.298000 0.580200 0.758000
vn 0.093000 -0.992400 -0.080500
vn -0.093000 -0.992400 -0.080500
vn 0.500600 -0.865700 0.008000
vn -0.500600 -0.865700 0.008000
vn 0.928500 -0.249700 0.274800
vn -0.928500 -0.249700 0.274800
vn 0.839300 0.542400 -0.037800
vn -0.839300 0.542400 -0.037800
vn -0.235500 0.936700 -0.258900
vn 0.235500 0.936700 -0.258900
vn -0.449900 0.883800 -0.128500
vn 0.449900 0.883800 -0.128500
vn -0.538400 -0.009800 -0.842700
vn 0.538400 -0.009800 -0.842700
vn -0.191000 -0.024100 -0.981300
vn 0.191000 -0.024100 -0.981300
vn 0.404600 0.026600 -0.914100
vn -0.404600 0.026600 -0.914100
vn -0.781900 0.623100 0.019700
vn 0.781900 0.623100 0.019700
vn 0.542800 -0.206300 -0.814200
vn -0.542800 -0.206300 -0.814200
vn -0.247400 -0.923100 -0.294500
vn 0.247400 -0.923100 -0.294500
usemtl None
s off
f 47/1/1 1/2/1 3/3/1 45/4/1
f 4/5/2 2/6/2 48/7/2 46/8/2
f 45/4/3 3/3/3 5/9/3 43/10/3
f 6/11/4 4/5/4 46/8/4 44/12/4
f 3/3/5 9/13/5 7/14/5 5/9/5
f 8/15/6 10/16/6 4/5/6 6/11/6
f 1/2/7 11/17/7 9/13/7 3/3/7
f 10/16/8 12/18/8 2/6/8 4/5/8
f 11/17/9 13/19/9 15/20/9 9/13/9
f 16/21/10 14/22/10 12/18/10 10/16/10
f 9/13/11 15/20/11 17/23/11 7/14/11
f 18/24/12 16/21/12 10/16/12 8/15/12
f 15/20/13 21/25/13 19/26/13 17/23/13
f 20/27/14 22/28/14 16/21/14 18/24/14
f 13/19/15 23/29/15 21/25/15 15/20/15
f 22/28/16 24/30/16 14/22/16 16/21/16
f 23/29/17 25/31/17 27/32/17 21/25/17
f 28/33/18 26/34/18 24/30/18 22/28/18
f 21/25/19 27/32/19 29/35/19 19/26/19
f 30/36/20 28/33/20 22/28/20 20/27/20
f 27/32/21 33/37/21 31/38/21 29/35/21
f 32/39/22 34/40/22 28/33/22 30/36/22
f 25/31/23 35/41/23 33/37/23 27/32/23
f 34/40/24 36/42/24 26/34/24 28/33/24
f 35/41/25 37/43/25 39/44/25 33/37/25
f 40/45/26 38/46/26 36/42/26 34/40/26
f 33/37/27 39/44/27 41/47/27 31/38/27
f 42/48/28 40/45/28 34/40/28 32/39/28
f 39/44/29 45/4/29 43/10/29 41/47/29
f 44/12/30 46/8/30 40/45/30 42/48/30
f 37/43/31 47/1/31 45/4/31 39/44/31
f 46/8/32 48/7/32 38/46/32 40/45/32
f 47/1/33 37/43/33 51/49/33 49/50/33
f 52/51/34 38/46/34 48/7/34 50/52/34
f 37/43/35 35/41/35 53/53/35 51/49/35
f 54/54/36 36/42/36 38/46/36 52/51/36
f 35/41/37 25/31/37 55/55/37 53/53/37
f 56/56/38 26/34/38 36/42/38 54/54/38
f 25/31/39 23/29/39 57/57/39 55/55/39
f 58/58/40 24/30/40 26/34/40 56/56/40
f 23/29/41 13/19/41 59/59/41 57/57/41
f 60/60/42 14/22/42 24/30/42 58/58/42
f 13/19/43 11/17/43 63/61/43 59/59/43
f 64/62/44 12/18/44 14/22/44 60/60/44
f 11/17/45 1/2/45 65/63/45 63/61/45
f 66/64/46 2/6/46 12/18/46 64/62/46
f 1/2/47 47/1/47 49/50/47 65/63/47
f 50/52/48 48/7/48 2/6/48 66/64/48
f 61/65/49 65/63/49 49/50/49
f 50/52/50 66/64/50 62/66/50
f 63/61/51 65/63/51 61/65/51
f 62/66/52 66/64/52 64/62/52
f 61/65/53 59/59/53 63/61/53
f 64/62/54 60/60/54 62/66/54
f 61/65/55 57/57/55 59/59/55
f 60/60/56 58/58/56 62/66/56
f 61/65/57 55/55/57 57/57/57
f 58/58/58 56/56/58 62/66/58
f 61/65/59 53/53/59 55/55/59
f 56/56/60 54/54/60 62/66/60
f 61/65/61 51/49/61 53/53/61
f 54/54/62 52/51/62 62/66/62
f 61/65/63 49/50/63 51/49/63
f 52/51/64 50/52/64 62/66/64
f 89/67/65 174/68/65 176/69/65 91/70/65
f 176/69/66 175/71/66 90/72/66 91/70/66
f 87/73/67 172/74/67 174/68/67 89/67/67
f 175/71/68 173/75/68 88/76/68 90/72/68
f 85/77/69 170/78/69 172/74/69 87/73/69
f 173/75/70 171/79/70 86/80/70 88/76/70
f 83/81/71 168/82/71 170/78/71 85/77/71
f 171/79/72 169/83/72 84/84/72 86/80/72
f 81/85/73 166/86/73 168/82/73 83/81/73
f 169/83/74 167/87/74 82/88/74 84/84/74
f 79/89/75 92/90/75 146/91/75 164/92/75
f 147/93/76 93/94/76 80/95/76 165/96/76
f 92/90/77 94/97/77 148/98/77 146/91/77
f 149/99/78 95/100/78 93/94/78 147/93/78
f 94/97/79 96/101/79 150/102/79 148/98/79
f 151/103/80 97/104/80 95/100/80 149/99/80
f 96/101/81 98/105/81 152/106/81 150/102/81
f 153/107/82 99/108/82 97/104/82 151/103/82
f 98/105/83 100/109/83 154/110/83 152/106/83
f 155/111/84 101/112/84 99/108/84 153/107/84
f 100/109/85 102/113/85 156/114/85 154/110/85
f 157/115/86 103/116/86 101/112/86 155/111/86
f 102/113/87 104/117/87 158/118/87 156/114/87
f 159/119/88 105/120/88 103/116/88 157/115/88
f 104/117/89 106/121/89 160/122/89 158/118/89
f 161/123/90 107/124/90 105/120/90 159/119/90
f 106/121/91 108/125/91 162/126/91 160/122/91
f 163/127/92 109/128/92 107/124/92 161/123/92
f 108/125/93 67/129/93 68/130/93 162/126/93
f 68/130/94 67/129/94 109/128/94 163/127/94
f 110/131/95 128/132/95 160/122/95 162/126/95
f 161/123/96 129/133/96 111/134/96 163/127/96
f 128/132/97 179/135/97 158/118/97 160/122/97
f 159/119/98 180/136/98 129/133/98 161/123/98
f 126/137/99 156/114/99 158/118/99 179/135/99
f 159/119/100 157/115/100 127/138/100 180/136/100
f 124/139/101 154/110/101 156/114/101 126/137/101
f 157/115/102 155/111/102 125/140/102 127/138/102
f 122/141/103 152/106/103 154/110/103 124/139/103
f 155/111/104 153/107/104 123/142/104 125/140/104
f 120/143/105 150/102/105 152/106/105 122/141/105
f 153/107/106 151/103/106 121/144/106 123/142/106
f 118/145/107 148/98/107 150/102/107 120/143/107
f 151/103/108 149/99/108 119/146/108 121/144/108
f 116/147/109 146/91/109 148/98/109 118/145/109
f 149/99/110 147/93/110 117/148/110 119/146/110
f 114/149/111 164/92/111 146/91/111 116/147/111
f 147/93/112 165/96/112 115/150/112 117/148/112
f 114/149/113 181/151/113 177/152/113 164/92/113
f 177/152/114 182/153/114 115/150/114 165/96/114
f 110/131/115 162/126/115 68/130/115 112/154/115
f 68/130/116 163/127/116 111/134/116 113/155/116
f 112/154/117 68/130/117 178/156/117 183/157/117
f 178/156/118 68/130/118 113/155/118 184/158/118
f 177/152/119 181/151/119 183/157/119 178/156/119
f 184/158/120 182/153/120 177/152/120 178/156/120
f 135/159/121 137/160/121 176/69/121 174/68/121
f 176/69/122 137/160/122 136/161/122 175/71/122
f 133/162/123 135/159/123 174/68/123 172/74/123
f 175/71/124 136/161/124 134/163/124 173/75/124
f 131/164/125 133/162/125 172/74/125 170/78/125
f 173/75/126 134/163/126 132/165/126 171/79/126
f 166/86/127 187/166/127 185/167/127 168/82/127
f 186/168/128 188/169/128 167/87/128 169/83/128
f 131/164/129 170/78/129 168/82/129 185/167/129
f 169/83/130 171/79/130 132/165/130 186/168/130
f 144/170/131 190/171/131 189/172/131 187/166/131
f 189/172/132 190/171/132 145/173/132 188/169/132
f 185/167/133 187/166/133 189/172/133 69/174/133
f 189/172/134 188/169/134 186/168/134 69/174/134
f 130/175/135 131/164/135 185/167/135 69/174/135
f 186/168/135 132/165/135 130/175/135 69/174/135
f 142/176/136 193/177/136 191/178/136 144/170/136
f 192/179/137 194/180/137 143/181/137 145/173/137
f 140/182/138 195/183/138 193/177/138 142/176/138
f 194/180/139 196/184/139 141/185/139 143/181/139
f 139/186/140 197/187/140 195/183/140 140/182/140
f 196/184/141 198/188/141 139/186/141 141/185/141
f 138/189/142 71/190/142 197/187/142 139/186/142
f 198/188/143 71/190/143 138/189/143 139/186/143
f 190/171/144 144/170/144 191/178/144 70/191/144
f 192/179/145 145/173/145 190/171/145 70/191/145
f 70/191/146 191/178/146 206/192/146 208/193/146
f 207/194/147 192/179/147 70/191/147 208/193/147
f 71/190/148 199/195/148 200/196/148 197/187/148
f 201/197/149 199/195/149 71/190/149 198/188/149
f 197/187/150 200/196/150 202/198/150 195/183/150
f 203/199/151 201/197/151 198/188/151 196/184/151
f 195/183/152 202/198/152 204/200/152 193/177/152
f 205/201/153 203/199/153 196/184/153 194/180/153
f 193/177/154 204/200/154 206/192/154 191/178/154
f 207/194/155 205/201/155 194/180/155 192/179/155
f 199/195/156 204/200/156 202/198/156 200/196/156
f 203/199/157 205/201/157 199/195/157 201/197/157
f 199/195/158 208/193/158 206/192/158 204/200/158
f 207/194/159 208/193/159 199/195/159 205/201/159
f 139/186/160 140/182/160 164/92/160 177/152/160
f 165/96/161 141/185/161 139/186/161 177/152/161
f 140/182/162 142/176/162 211/202/162 164/92/162
f 212/203/163 143/181/163 141/185/163 165/96/163
f 142/176/164 144/170/164 213/204/164 211/202/164
f 214/205/165 145/173/165 143/181/165 212/203/165
f 144/170/166 187/166/166 166/86/166 213/204/166
f 167/87/167 188/169/167 145/173/167 214/205/167
f 81/85/168 209/206/168 213/204/168 166/86/168
f 214/205/169 210/207/169 82/88/169 167/87/169
f 209/206/170 215/208/170 211/202/170 213/204/170
f 212/203/171 216/209/171 210/207/171 214/205/171
f 79/89/172 164/92/172 211/202/172 215/208/172
f 212/203/173 165/96/173 80/95/173 216/209/173
f 131/164/174 130/175/174 72/210/174 222/211/174
f 72/210/175 130/175/175 132/165/175 223/212/175
f 133/162/176 131/164/176 222/211/176 220/213/176
f 223/212/177 132/165/177 134/163/177 221/214/177
f 135/159/178 133/162/178 220/213/178 218/215/178
f 221/214/179 134/163/179 136/161/179 219/216/179
f 137/160/180 135/159/180 218/215/180 217/217/180
f 219/216/181 136/161/181 137/160/181 217/217/181
f 217/217/182 218/215/182 229/218/182 231/219/182
f 230/220/183 219/216/183 217/217/183 231/219/183
f 218/215/184 220/213/184 227/221/184 229/218/184
f 228/222/185 221/214/185 219/216/185 230/220/185
f 220/213/186 222/211/186 225/223/186 227/221/186
f 226/224/187 223/212/187 221/214/187 228/222/187
f 222/211/188 72/210/188 224/225/188 225/223/188
f 224/225/189 72/210/189 223/212/189 226/224/189
f 224/225/190 231/219/190 229/218/190 225/223/190
f 230/220/191 231/219/191 224/225/191 226/224/191
f 225/223/192 229/218/192 227/221/192
f 228/222/193 230/220/193 226/224/193
f 183/157/194 181/151/194 234/226/194 232/227/194
f 235/228/195 182/153/195 184/158/195 233/229/195
f 112/154/196 183/157/196 232/227/196 254/230/196
f 233/229/197 184/158/197 113/155/197 255/231/197
f 110/131/198 112/154/198 254/230/198 256/232/198
f 255/231/199 113/155/199 111/134/199 257/233/199
f 181/151/200 114/149/200 252/234/200 234/226/200
f 253/235/201 115/150/201 182/153/201 235/228/201
f 114/149/202 116/147/202 250/236/202 252/234/202
f 251/237/203 117/148/203 115/150/203 253/235/203
f 116/147/204 118/145/204 248/238/204 250/236/204
f 249/239/205 119/146/205 117/148/205 251/237/205
f 118/145/206 120/143/206 246/240/206 248/238/206
f 247/241/207 121/144/207 119/146/207 249/239/207
f 120/143/208 122/141/208 244/242/208 246/240/208
f 245/243/209 123/142/209 121/144/209 247/241/209
f 122/141/210 124/139/210 242/244/210 244/242/210
f 243/245/211 125/140/211 123/142/211 245/243/211
f 124/139/212 126/137/212 240/246/212 242/244/212
f 241/247/213 127/138/213 125/140/213 243/245/213
f 126/137/214 179/135/214 236/248/214 240/246/214
f 237/249/215 180/136/215 127/138/215 241/247/215
f 179/135/216 128/132/216 238/250/216 236/248/216
f 239/251/217 129/133/217 180/136/217 237/249/217
f 128/132/218 110/131/218 256/232/218 238/250/218
f 257/233/219 111/134/219 129/133/219 239/251/219
f 238/250/220 256/232/220 258/252/220 276/253/220
f 259/254/221 257/233/221 239/251/221 277/255/221
f 236/248/222 238/250/222 276/253/222 278/256/222
f 277/255/223 239/251/223 237/249/223 279/257/223
f 240/246/224 236/248/224 278/256/224 274/258/224
f 279/257/225 237/249/225 241/247/225 275/259/225
f 242/244/226 240/246/226 274/258/226 272/260/226
f 275/259/227 241/247/227 243/245/227 273/261/227
f 244/242/228 242/244/228 272/260/228 270/262/228
f 273/261/229 243/245/229 245/243/229 271/263/229
f 246/240/230 244/242/230 270/262/230 268/264/230
f 271/263/231 245/243/231 247/241/231 269/265/231
f 248/238/232 246/240/232 268/264/232 266/266/232
f 269/265/233 247/241/233 249/239/233 267/267/233
f 250/236/234 248/238/234 266/266/234 264/268/234
f 267/267/235 249/239/235 251/237/235 265/269/235
f 252/234/236 250/236/236 264/268/236 262/270/236
f 265/269/237 251/237/237 253/235/237 263/271/237
f 234/226/238 252/234/238 262/270/238 280/272/238
f 263/271/239 253/235/239 235/228/239 281/273/239
f 256/232/240 254/230/240 260/274/240 258/252/240
f 261/275/241 255/231/241 257/233/241 259/254/241
f 254/230/242 232/227/242 282/276/242 260/274/242
f 283/277/243 233/229/243 255/231/243 261/275/243
f 232/227/244 234/226/244 280/272/244 282/276/244
f 281/273/245 235/228/245 233/229/245 283/277/245
f 67/129/246 108/125/246 284/278/246 73/279/246
f 285/280/247 109/128/247 67/129/247 73/279/247
f 108/125/248 106/121/248 286/281/248 284/278/248
f 287/282/249 107/124/249 109/128/249 285/280/249
f 106/121/250 104/117/250 288/283/250 286/281/250
f 289/284/251 105/120/251 107/124/251 287/282/251
f 104/117/252 102/113/252 290/285/252 288/283/252
f 291/286/253 103/116/253 105/120/253 289/284/253
f 102/113/254 100/109/254 292/287/254 290/285/254
f 293/288/255 101/112/255 103/116/255 291/286/255
f 100/109/256 98/105/256 294/289/256 292/287/256
f 295/290/257 99/108/257 101/112/257 293/288/257
f 98/105/258 96/101/258 296/291/258 294/289/258
f 297/292/259 97/104/259 99/108/259 295/290/259
f 96/101/260 94/97/260 298/293/260 296/291/260
f 299/294/261 95/100/261 97/104/261 297/292/261
f 94/97/262 92/90/262 300/295/262 298/293/262
f 301/296/263 93/94/263 95/100/263 299/294/263
f 308/297/264 309/298/264 328/299/264 338/300/264
f 329/301/265 309/298/265 308/297/265 339/302/265
f 307/303/266 308/297/266 338/300/266 336/304/266
f 339/302/267 308/297/267 307/303/267 337/305/267
f 306/306/268 307/303/268 336/304/268 340/307/268
f 337/305/269 307/303/269 306/306/269 341/308/269
f 89/67/270 91/70/270 306/306/270 340/307/270
f 306/306/271 91/70/271 90/72/271 341/308/271
f 87/73/272 89/67/272 340/307/272 334/309/272
f 341/308/273 90/72/273 88/76/273 335/310/273
f 85/77/274 87/73/274 334/309/274 330/311/274
f 335/310/275 88/76/275 86/80/275 331/312/275
f 83/81/276 85/77/276 330/311/276 332/313/276
f 331/312/277 86/80/277 84/84/277 333/314/277
f 330/311/278 336/304/278 338/300/278 332/313/278
f 339/302/279 337/305/279 331/312/279 333/314/279
f 330/311/280 334/309/280 340/307/280 336/304/280
f 341/308/281 335/310/281 331/312/281 337/305/281
f 326/315/282 332/313/282 338/300/282 328/299/282
f 339/302/283 333/314/283 327/316/283 329/301/283
f 81/85/284 83/81/284 332/313/284 326/315/284
f 333/314/285 84/84/285 82/88/285 327/316/285
f 209/206/286 342/317/286 344/318/286 215/208/286
f 345/319/287 343/320/287 210/207/287 216/209/287
f 81/85/288 326/315/288 342/317/288 209/206/288
f 343/320/289 327/316/289 82/88/289 210/207/289
f 79/89/290 215/208/290 344/318/290 346/321/290
f 345/319/291 216/209/291 80/95/291 347/322/291
f 79/89/292 346/321/292 300/295/292 92/90/292
f 301/296/293 347/322/293 80/95/293 93/94/293
f 77/323/294 324/324/294 352/325/294 304/326/294
f 353/327/295 325/328/295 77/323/295 304/326/295
f 304/326/296 352/325/296 350/329/296 78/330/296
f 351/331/297 353/327/297 304/326/297 78/330/297
f 78/330/298 350/329/298 348/332/298 305/333/298
f 349/334/299 351/331/299 78/330/299 305/333/299
f 305/333/300 348/332/300 328/299/300 309/298/300
f 329/301/301 349/334/301 305/333/301 309/298/301
f 326/315/302 328/299/302 348/332/302 342/317/302
f 349/334/303 329/301/303 327/316/303 343/320/303
f 296/291/304 298/293/304 318/335/304 310/336/304
f 319/337/305 299/294/305 297/292/305 311/338/305
f 76/339/306 316/340/306 324/324/306 77/323/306
f 325/328/307 317/341/307 76/339/307 77/323/307
f 302/342/308 358/343/308 356/344/308 303/345/308
f 357/346/309 359/347/309 302/342/309 303/345/309
f 303/345/310 356/344/310 354/348/310 75/349/310
f 355/350/311 357/346/311 303/345/311 75/349/311
f 75/349/312 354/348/312 316/340/312 76/339/312
f 317/341/313 355/350/313 75/349/313 76/339/313
f 292/287/314 294/289/314 362/351/314 364/352/314
f 363/353/315 295/290/315 293/288/315 365/354/315
f 364/352/316 362/351/316 368/355/316 366/356/316
f 369/357/317 363/353/317 365/354/317 367/358/317
f 366/356/318 368/355/318 370/359/318 372/360/318
f 371/361/319 369/357/319 367/358/319 373/362/319
f 372/360/320 370/359/320 376/363/320 374/364/320
f 377/365/321 371/361/321 373/362/321 375/366/321
f 314/367/322 378/368/322 374/364/322 376/363/322
f 375/366/323 379/369/323 315/370/323 377/365/323
f 316/340/324 354/348/324 374/364/324 378/368/324
f 375/366/325 355/350/325 317/341/325 379/369/325
f 354/348/326 356/344/326 372/360/326 374/364/326
f 373/362/327 357/346/327 355/350/327 375/366/327
f 356/344/328 358/343/328 366/356/328 372/360/328
f 367/358/329 359/347/329 357/346/329 373/362/329
f 358/343/330 360/371/330 364/352/330 366/356/330
f 365/354/331 361/372/331 359/347/331 367/358/331
f 290/285/332 292/287/332 364/352/332 360/371/332
f 365/354/333 293/288/333 291/286/333 361/372/333
f 74/373/334 360/371/334 358/343/334 302/342/334
f 359/347/335 361/372/335 74/373/335 302/342/335
f 284/278/336 286/281/336 288/283/336 290/285/336
f 289/284/337 287/282/337 285/280/337 291/286/337
f 284/278/338 290/285/338 360/371/338 74/373/338
f 361/372/339 291/286/339 285/280/339 74/373/339
f 73/279/340 284/278/340 74/373/340
f 74/373/341 285/280/341 73/279/341
f 294/289/342 296/291/342 310/336/342 362/351/342
f 311/338/343 297/292/343 295/290/343 363/353/343
f 310/336/344 312/374/344 368/355/344 362/351/344
f 369/357/345 313/375/345 311/338/345 363/353/345
f 312/374/346 382/376/346 370/359/346 368/355/346
f 371/361/347 383/377/347 313/375/347 369/357/347
f 314/367/348 376/363/348 370/359/348 382/376/348
f 371/361/349 377/365/349 315/370/349 383/377/349
f 348/332/350 350/329/350 386/378/350 384/379/350
f 387/380/351 351/331/351 349/334/351 385/381/351
f 318/335/352 384/379/352 386/378/352 320/382/352
f 387/380/353 385/381/353 319/337/353 321/383/353
f 298/293/354 300/295/354 384/379/354 318/335/354
f 385/381/355 301/296/355 299/294/355 319/337/355
f 300/295/356 344/318/356 342/317/356 384/379/356
f 343/320/357 345/319/357 301/296/357 385/381/357
f 342/317/358 348/332/358 384/379/358
f 385/381/359 349/334/359 343/320/359
f 300/295/360 346/321/360 344/318/360
f 345/319/361 347/322/361 301/296/361
f 314/367/362 322/384/362 380/385/362 378/368/362
f 381/386/363 323/387/363 315/370/363 379/369/363
f 316/340/364 378/368/364 380/385/364 324/324/364
f 381/386/365 379/369/365 317/341/365 325/328/365
f 320/382/366 386/378/366 380/385/366 322/384/366
f 381/386/367 387/380/367 321/383/367 323/387/367
f 350/329/368 352/325/368 380/385/368 386/378/368
f 381/386/369 353/327/369 351/331/369 387/380/369
f 324/324/370 380/385/370 352/325/370
f 353/327/371 381/386/371 325/328/371
f 400/388/372 388/389/372 414/390/372 402/391/372
f 415/392/373 389/393/373 401/394/373 403/395/373
f 400/388/374 402/391/374 404/396/374 398/397/374
f 405/398/375 403/395/375 401/394/375 399/399/375
f 398/397/376 404/396/376 406/400/376 396/401/376
f 407/402/377 405/398/377 399/399/377 397/403/377
f 396/401/378 406/400/378 408/404/378 394/405/378
f 409/406/379 407/402/379 397/403/379 395/407/379
f 394/405/380 408/404/380 410/408/380 392/409/380
f 411/410/381 409/406/381 395/407/381 393/411/381
f 392/409/382 410/408/382 412/412/382 390/413/382
f 413/414/383 411/410/383 393/411/383 391/415/383
f 410/408/384 420/416/384 418/417/384 412/412/384
f 419/418/385 421/419/385 411/410/385 413/414/385
f 408/404/386 422/420/386 420/416/386 410/408/386
f 421/419/387 423/421/387 409/406/387 411/410/387
f 406/400/388 424/422/388 422/420/388 408/404/388
f 423/421/389 425/423/389 407/402/389 409/406/389
f 404/396/390 426/424/390 424/422/390 406/400/390
f 425/423/391 427/425/391 405/398/391 407/402/391
f 402/391/392 428/426/392 426/424/392 404/396/392
f 427/425/393 429/427/393 403/395/393 405/398/393
f 402/391/394 414/390/394 416/428/394 428/426/394
f 417/429/395 415/392/395 403/395/395 429/427/395
f 318/335/396 320/382/396 444/430/396 442/431/396
f 445/432/397 321/383/397 319/337/397 443/433/397
f 320/382/398 390/413/398 412/412/398 444/430/398
f 413/414/399 391/415/399 321/383/399 445/432/399
f 310/336/400 318/335/400 442/431/400 312/374/400
f 443/433/401 319/337/401 311/338/401 313/375/401
f 382/376/402 430/434/402 414/390/402 388/389/402
f 415/392/403 431/435/403 383/377/403 389/393/403
f 412/412/404 418/417/404 440/436/404 444/430/404
f 441/437/405 419/418/405 413/414/405 445/432/405
f 438/438/406 446/439/406 444/430/406 440/436/406
f 445/432/407 447/440/407 439/441/407 441/437/407
f 434/442/408 446/439/408 438/438/408 436/443/408
f 439/441/409 447/440/409 435/444/409 437/445/409
f 432/446/410 448/447/410 446/439/410 434/442/410
f 447/440/411 449/448/411 433/449/411 435/444/411
f 430/434/412 448/447/412 432/446/412 450/450/412
f 433/449/413 449/448/413 431/435/413 451/451/413
f 414/390/414 430/434/414 450/450/414 416/428/414
f 451/451/415 431/435/415 415/392/415 417/429/415
f 312/374/416 448/447/416 430/434/416 382/376/416
f 431/435/417 449/448/417 313/375/417 383/377/417
f 312/374/418 442/431/418 446/439/418 448/447/418
f 447/440/419 443/433/419 313/375/419 449/448/419
f 442/431/420 444/430/420 446/439/420
f 447/440/421 445/432/421 443/433/421
f 416/428/422 450/450/422 452/452/422 476/453/422
f 453/454/423 451/451/423 417/429/423 477/455/423
f 450/450/424 432/446/424 462/456/424 452/452/424
f 463/457/425 433/449/425 451/451/425 453/454/425
f 432/446/426 434/442/426 460/458/426 462/456/426
f 461/459/427 435/444/427 433/449/427 463/457/427
f 434/442/428 436/443/428 458/460/428 460/458/428
f 459/461/429 437/445/429 435/444/429 461/459/429
f 436/443/430 438/438/430 456/462/430 458/460/430
f 457/463/431 439/441/431 437/445/431 459/461/431
f 438/438/432 440/436/432 454/464/432 456/462/432
f 455/465/433 441/437/433 439/441/433 457/463/433
f 440/436/434 418/417/434 474/466/434 454/464/434
f 475/467/435 419/418/435 441/437/435 455/465/435
f 428/426/436 416/428/436 476/453/436 464/468/436
f 477/455/437 417/429/437 429/427/437 465/469/437
f 426/424/438 428/426/438 464/468/438 466/470/438
f 465/469/439 429/427/439 427/425/439 467/471/439
f 424/422/440 426/424/440 466/470/440 468/472/440
f 467/471/441 427/425/441 425/423/441 469/473/441
f 422/420/442 424/422/442 468/472/442 470/420/442
f 469/473/443 425/423/443 423/421/443 471/474/443
f 420/416/444 422/420/444 470/420/444 472/475/444
f 471/474/445 423/421/445 421/419/445 473/476/445
f 418/417/446 420/416/446 472/475/446 474/466/446
f 473/476/447 421/419/447 419/418/447 475/467/447
f 458/460/448 456/462/448 480/477/448 478/478/448
f 481/479/449 457/463/449 459/461/449 479/480/449
f 478/478/450 480/477/450 482/481/450 484/482/450
f 483/483/451 481/479/451 479/480/451 485/484/451
f 484/482/452 482/481/452 488/485/452 486/486/452
f 489/487/453 483/483/453 485/484/453 487/488/453
f 486/486/454 488/485/454 490/489/454 492/490/454
f 491/491/455 489/487/455 487/488/455 493/492/455
f 464/468/456 476/453/456 486/486/456 492/490/456
f 487/488/457 477/455/457 465/469/457 493/492/457
f 452/452/458 484/482/458 486/486/458 476/453/458
f 487/488/459 485/484/459 453/454/459 477/455/459
f 452/452/460 462/456/460 478/478/460 484/482/460
f 479/480/461 463/457/461 453/454/461 485/484/461
f 458/460/462 478/478/462 462/456/462 460/458/462
f 463/457/463 479/480/463 459/461/463 461/459/463
f 454/464/464 474/466/464 480/477/464 456/462/464
f 481/479/465 475/467/465 455/465/465 457/463/465
f 472/475/466 482/481/466 480/477/466 474/466/466
f 481/479/467 483/483/467 473/476/467 475/467/467
f 470/420/468 488/485/468 482/481/468 472/475/468
f 483/483/469 489/487/469 471/474/469 473/476/469
f 468/472/470 490/489/470 488/485/470 470/420/470
f 489/487/471 491/491/471 469/473/471 471/474/471
f 466/470/472 492/490/472 490/489/472 468/472/472
f 491/491/473 493/492/473 467/471/473 469/473/473
f 464/468/474 492/490/474 466/470/474
f 467/471/475 493/492/475 465/469/475
f 392/409/476 390/413/476 504/493/476 502/494/476
f 505/495/477 391/415/477 393/411/477 503/496/477
f 394/405/478 392/409/478 502/494/478 500/497/478
f 503/496/479 393/411/479 395/407/479 501/498/479
f 396/401/480 394/405/480 500/497/480 498/499/480
f 501/498/481 395/407/481 397/403/481 499/500/481
f 398/397/482 396/401/482 498/499/482 496/501/482
f 499/500/483 397/403/483 399/399/483 497/502/483
f 400/388/484 398/397/484 496/501/484 494/503/484
f 497/502/485 399/399/485 401/394/485 495/504/485
f 388/389/486 400/388/486 494/503/486 506/505/486
f 495/504/487 401/394/487 389/393/487 507/506/487
f 494/503/488 502/494/488 504/493/488 506/505/488
f 505/495/489 503/496/489 495/504/489 507/506/489
f 494/503/490 496/501/490 500/497/490 502/494/490
f 501/498/491 497/502/491 495/504/491 503/496/491
f 496/501/492 498/499/492 500/497/492
f 501/498/493 499/500/493 497/502/493
f 314/367/494 382/376/494 388/389/494 506/505/494
f 389/393/495 383/377/495 315/370/495 507/506/495
f 314/367/496 506/505/496 504/493/496 322/384/496
f 505/495/497 507/506/497 315/370/497 323/387/497
f 320/382/498 322/384/498 504/493/498 390/413/498
f 505/495/499 323/387/499 321/383/499 391/415/499
